%YAML 1.1
%TAG !u! tag:unity3d.com,2011:
--- !u!162 &1
EditorUserSettings:
  m_ObjectHideFlags: 0
  serializedVersion: 4
  m_ConfigSettings:
    RecentlyUsedScenePath-0:
      value: 3350570d04520c4842180d2c192f53115807143f3f66223139281c20f1e5202badd437e4f7363a2f7631ec390a3b1270d60b1d0ab62a1918141abd3a14ec045d04cb11d103
      flags: 0
    RecentlyUsedScenePath-1:
      value: 224247031146466d0c00052e1c221f341703196a0d3b3535393a5201f7ee2031efe279dae6372f303c11a00f073b0f3ae1452d0ae20a4a2a021df81a51cb1500058b0dcb13dc06
      flags: 0
    RecentlyUsedScenePath-2:
      value: 224247031146466d0c00052e1c221f341703196a0d3b3535393a5201f7ee2031efe279dae6372f303c11a00f073b0f3ae1453a0afb1b060e512bf90705f0025d04cb11d103
      flags: 0
    RecentlyUsedScenePath-3:
      value: 224247031146466d0c00052e1c221f341703196a0d3b3535393a5201f7ee2031efe279dae6372f303c11a00f073b0f3ae1453a0afb1b060e513bd44004f1190708
      flags: 0
    RecentlyUsedScenePath-4:
      value: 2242470311464676081a0d111331560002572c2f3f3c6663633c133af6f9
      flags: 0
    RecentlyUsedScenePath-5:
      value: 224247031146467e0c1d052c17105e1d061b1d6439262f2434
      flags: 0
    RecentlyUsedScenePath-6:
      value: 224247031146467f0c1a0d6231304c150204581f3c2c272428692936f1f47a2decee22f0
      flags: 0
    RecentlyUsedScenePath-7:
      value: 224247031146467f0c1a0d6231304c150204581e243a2335627a5d1fe3f9312aa2c333ecf77a0f33300cfb39167e2336fc0e0005f14b2f131003ed0214b1051d18d101
      flags: 0
    vcSharedLogLevel:
      value: 0d5e400f0650
      flags: 0
  m_VCAutomaticAdd: 1
  m_VCDebugCom: 0
  m_VCDebugCmd: 0
  m_VCDebugOut: 0
  m_SemanticMergeMode: 2
  m_VCShowFailedCheckout: 1
  m_VCOverwriteFailedCheckoutAssets: 1
  m_VCProjectOverlayIcons: 1
  m_VCHierarchyOverlayIcons: 1
  m_VCOtherOverlayIcons: 1
  m_VCAllowAsyncUpdate: 0
