{
  "dependencies": {
    "com.cysharp.unitask": {
      "version": "2.2.5",
      "depth": 0,
      "source": "registry",
      "dependencies": {},
      "url": "https://package.openupm.com"
    },
    "com.unity.burst": {
      "version": "1.6.0",
      "depth": 1,
      "source": "registry",
      "dependencies": {
        "com.unity.mathematics": "1.2.1"
      },
      "url": "https://packages.unity.com"
    },
    "com.unity.ext.nunit": {
      "version": "1.0.6",
      "depth": 1,
      "source": "registry",
      "dependencies": {},
      "url": "https://packages.unity.com"
    },
    "com.unity.ide.rider": {
      "version": "3.0.7",
      "depth": 0,
      "source": "registry",
      "dependencies": {
        "com.unity.ext.nunit": "1.0.6"
      },
      "url": "https://packages.unity.com"
    },
    "com.unity.ide.visualstudio": {
      "version": "2.0.11",
      "depth": 0,
      "source": "registry",
      "dependencies": {
        "com.unity.test-framework": "1.1.9"
      },
      "url": "https://packages.unity.com"
    },
    "com.unity.mathematics": {
      "version": "1.2.4",
      "depth": 1,
      "source": "registry",
      "dependencies": {},
      "url": "https://packages.unity.com"
    },
    "com.unity.nuget.newtonsoft-json": {
      "version": "2.0.0",
      "depth": 1,
      "source": "registry",
      "dependencies": {},
      "url": "https://packages.unity.com"
    },
    "com.unity.remote-config": {
      "version": "2.1.2",
      "depth": 0,
      "source": "registry",
      "dependencies": {
        "com.unity.nuget.newtonsoft-json": "2.0.0",
        "com.unity.modules.unitywebrequest": "1.0.0",
        "com.unity.remote-config-runtime": "2.1.2"
      },
      "url": "https://packages.unity.com"
    },
    "com.unity.remote-config-runtime": {
      "version": "2.1.2",
      "depth": 1,
      "source": "registry",
      "dependencies": {
        "com.unity.nuget.newtonsoft-json": "2.0.0",
        "com.unity.modules.unitywebrequest": "1.0.0",
        "com.unity.modules.unityanalytics": "1.0.0"
      },
      "url": "https://packages.unity.com"
    },
    "com.unity.render-pipelines.core": {
      "version": "12.1.1",
      "depth": 1,
      "source": "builtin",
      "dependencies": {
        "com.unity.ugui": "1.0.0",
        "com.unity.modules.physics": "1.0.0",
        "com.unity.modules.jsonserialize": "1.0.0"
      }
    },
    "com.unity.render-pipelines.universal": {
      "version": "12.1.1",
      "depth": 0,
      "source": "builtin",
      "dependencies": {
        "com.unity.mathematics": "1.2.1",
        "com.unity.burst": "1.5.0",
        "com.unity.render-pipelines.core": "12.1.1",
        "com.unity.shadergraph": "12.1.1"
      }
    },
    "com.unity.searcher": {
      "version": "4.9.1",
      "depth": 2,
      "source": "registry",
      "dependencies": {},
      "url": "https://packages.unity.com"
    },
    "com.unity.shadergraph": {
      "version": "12.1.1",
      "depth": 1,
      "source": "builtin",
      "dependencies": {
        "com.unity.render-pipelines.core": "12.1.1",
        "com.unity.searcher": "4.9.1"
      }
    },
    "com.unity.test-framework": {
      "version": "1.1.29",
      "depth": 0,
      "source": "registry",
      "dependencies": {
        "com.unity.ext.nunit": "1.0.6",
        "com.unity.modules.imgui": "1.0.0",
        "com.unity.modules.jsonserialize": "1.0.0"
      },
      "url": "https://packages.unity.com"
    },
    "com.unity.ugui": {
      "version": "1.0.0",
      "depth": 0,
      "source": "builtin",
      "dependencies": {
        "com.unity.modules.ui": "1.0.0",
        "com.unity.modules.imgui": "1.0.0"
      }
    },
    "vanilla.ballistics": {
      "version": "file:Vanilla Ballistics",
      "depth": 0,
      "source": "embedded",
      "dependencies": {
        "vanilla.unity-extensions": "1.0.0"
      }
    },
    "vanilla.character-controller": {
      "version": "file:Vanilla Character Controller",
      "depth": 0,
      "source": "embedded",
      "dependencies": {
        "vanilla.ray-detectors": "1.0.0"
      }
    },
    "vanilla.context-menu-tools": {
      "version": "file:Vanilla Context Menu Tools",
      "depth": 0,
      "source": "embedded",
      "dependencies": {}
    },
    "vanilla.core": {
      "version": "file:Vanilla Core",
      "depth": 0,
      "source": "embedded",
      "dependencies": {}
    },
    "vanilla.danger": {
      "version": "file:Vanilla Danger",
      "depth": 0,
      "source": "embedded",
      "dependencies": {}
    },
    "vanilla.debug-cam": {
      "version": "file:Vanilla Debug Cam",
      "depth": 0,
      "source": "embedded",
      "dependencies": {}
    },
    "vanilla.dotnet-extensions": {
      "version": "file:Vanilla DotNet Extensions",
      "depth": 0,
      "source": "embedded",
      "dependencies": {}
    },
    "vanilla.easing": {
      "version": "file:Vanilla Easing",
      "depth": 0,
      "source": "embedded",
      "dependencies": {}
    },
    "vanilla.first-person-kit": {
      "version": "file:Vanilla First Person Kit",
      "depth": 0,
      "source": "embedded",
      "dependencies": {}
    },
    "vanilla.folder-to-bundle": {
      "version": "file:Vanilla Folder To Bundle",
      "depth": 0,
      "source": "embedded",
      "dependencies": {}
    },
    "vanilla.func-olympics": {
      "version": "file:Vanilla Func Olympics",
      "depth": 0,
      "source": "embedded",
      "dependencies": {}
    },
    "vanilla.geodetics": {
      "version": "file:Vanilla Geodetics",
      "depth": 0,
      "source": "embedded",
      "dependencies": {}
    },
    "vanilla.initializer": {
      "version": "file:Vanilla Initializer",
      "depth": 0,
      "source": "embedded",
      "dependencies": {
        "com.cysharp.unitask": "2.2.1"
      }
    },
    "vanilla.package-template": {
      "version": "file:Vanilla Package Template",
      "depth": 0,
      "source": "embedded",
      "dependencies": {}
    },
    "vanilla.platform-report": {
      "version": "file:Vanilla Platform Report",
      "depth": 0,
      "source": "embedded",
      "dependencies": {
        "vanilla.string-formatting": "1.0.0"
      }
    },
    "vanilla.pools": {
      "version": "file:Vanilla Pools",
      "depth": 0,
      "source": "embedded",
      "dependencies": {}
    },
    "vanilla.quit-utility": {
      "version": "file:Vanilla Quit Utility",
      "depth": 0,
      "source": "embedded",
      "dependencies": {}
    },
    "vanilla.ray-detectors": {
      "version": "file:Vanilla Ray Detectors",
      "depth": 0,
      "source": "embedded",
      "dependencies": {}
    },
    "vanilla.schrodinger-assets": {
      "version": "file:Vanilla Schrodinger Assets",
      "depth": 0,
      "source": "embedded",
      "dependencies": {
        "vanilla.type-menu": "1.0.0"
      }
    },
    "vanilla.string-formatting": {
      "version": "file:Vanilla String Formatting",
      "depth": 0,
      "source": "embedded",
      "dependencies": {}
    },
    "vanilla.swaperators": {
      "version": "file:Vanilla Swaperators",
      "depth": 0,
      "source": "embedded",
      "dependencies": {
        "vanilla.type-menu": "1.0.0"
      }
    },
    "vanilla.type-menu": {
      "version": "file:Vanilla Type Menu",
      "depth": 0,
      "source": "embedded",
      "dependencies": {}
    },
    "vanilla.unity-extensions": {
      "version": "file:Vanilla Unity Extensions",
      "depth": 0,
      "source": "embedded",
      "dependencies": {
        "vanilla.dotnet-extensions": "1.0.0"
      }
    },
    "com.unity.modules.ai": {
      "version": "1.0.0",
      "depth": 0,
      "source": "builtin",
      "dependencies": {}
    },
    "com.unity.modules.androidjni": {
      "version": "1.0.0",
      "depth": 0,
      "source": "builtin",
      "dependencies": {}
    },
    "com.unity.modules.animation": {
      "version": "1.0.0",
      "depth": 0,
      "source": "builtin",
      "dependencies": {}
    },
    "com.unity.modules.assetbundle": {
      "version": "1.0.0",
      "depth": 0,
      "source": "builtin",
      "dependencies": {}
    },
    "com.unity.modules.audio": {
      "version": "1.0.0",
      "depth": 0,
      "source": "builtin",
      "dependencies": {}
    },
    "com.unity.modules.cloth": {
      "version": "1.0.0",
      "depth": 0,
      "source": "builtin",
      "dependencies": {
        "com.unity.modules.physics": "1.0.0"
      }
    },
    "com.unity.modules.director": {
      "version": "1.0.0",
      "depth": 0,
      "source": "builtin",
      "dependencies": {
        "com.unity.modules.audio": "1.0.0",
        "com.unity.modules.animation": "1.0.0"
      }
    },
    "com.unity.modules.imageconversion": {
      "version": "1.0.0",
      "depth": 0,
      "source": "builtin",
      "dependencies": {}
    },
    "com.unity.modules.imgui": {
      "version": "1.0.0",
      "depth": 0,
      "source": "builtin",
      "dependencies": {}
    },
    "com.unity.modules.jsonserialize": {
      "version": "1.0.0",
      "depth": 0,
      "source": "builtin",
      "dependencies": {}
    },
    "com.unity.modules.particlesystem": {
      "version": "1.0.0",
      "depth": 0,
      "source": "builtin",
      "dependencies": {}
    },
    "com.unity.modules.physics": {
      "version": "1.0.0",
      "depth": 0,
      "source": "builtin",
      "dependencies": {}
    },
    "com.unity.modules.physics2d": {
      "version": "1.0.0",
      "depth": 0,
      "source": "builtin",
      "dependencies": {}
    },
    "com.unity.modules.screencapture": {
      "version": "1.0.0",
      "depth": 0,
      "source": "builtin",
      "dependencies": {
        "com.unity.modules.imageconversion": "1.0.0"
      }
    },
    "com.unity.modules.subsystems": {
      "version": "1.0.0",
      "depth": 1,
      "source": "builtin",
      "dependencies": {
        "com.unity.modules.jsonserialize": "1.0.0"
      }
    },
    "com.unity.modules.terrain": {
      "version": "1.0.0",
      "depth": 0,
      "source": "builtin",
      "dependencies": {}
    },
    "com.unity.modules.terrainphysics": {
      "version": "1.0.0",
      "depth": 0,
      "source": "builtin",
      "dependencies": {
        "com.unity.modules.physics": "1.0.0",
        "com.unity.modules.terrain": "1.0.0"
      }
    },
    "com.unity.modules.tilemap": {
      "version": "1.0.0",
      "depth": 0,
      "source": "builtin",
      "dependencies": {
        "com.unity.modules.physics2d": "1.0.0"
      }
    },
    "com.unity.modules.ui": {
      "version": "1.0.0",
      "depth": 0,
      "source": "builtin",
      "dependencies": {}
    },
    "com.unity.modules.uielements": {
      "version": "1.0.0",
      "depth": 0,
      "source": "builtin",
      "dependencies": {
        "com.unity.modules.ui": "1.0.0",
        "com.unity.modules.imgui": "1.0.0",
        "com.unity.modules.jsonserialize": "1.0.0",
        "com.unity.modules.uielementsnative": "1.0.0"
      }
    },
    "com.unity.modules.uielementsnative": {
      "version": "1.0.0",
      "depth": 1,
      "source": "builtin",
      "dependencies": {
        "com.unity.modules.ui": "1.0.0",
        "com.unity.modules.imgui": "1.0.0",
        "com.unity.modules.jsonserialize": "1.0.0"
      }
    },
    "com.unity.modules.umbra": {
      "version": "1.0.0",
      "depth": 0,
      "source": "builtin",
      "dependencies": {}
    },
    "com.unity.modules.unityanalytics": {
      "version": "1.0.0",
      "depth": 0,
      "source": "builtin",
      "dependencies": {
        "com.unity.modules.unitywebrequest": "1.0.0",
        "com.unity.modules.jsonserialize": "1.0.0"
      }
    },
    "com.unity.modules.unitywebrequest": {
      "version": "1.0.0",
      "depth": 0,
      "source": "builtin",
      "dependencies": {}
    },
    "com.unity.modules.unitywebrequestassetbundle": {
      "version": "1.0.0",
      "depth": 0,
      "source": "builtin",
      "dependencies": {
        "com.unity.modules.assetbundle": "1.0.0",
        "com.unity.modules.unitywebrequest": "1.0.0"
      }
    },
    "com.unity.modules.unitywebrequestaudio": {
      "version": "1.0.0",
      "depth": 0,
      "source": "builtin",
      "dependencies": {
        "com.unity.modules.unitywebrequest": "1.0.0",
        "com.unity.modules.audio": "1.0.0"
      }
    },
    "com.unity.modules.unitywebrequesttexture": {
      "version": "1.0.0",
      "depth": 0,
      "source": "builtin",
      "dependencies": {
        "com.unity.modules.unitywebrequest": "1.0.0",
        "com.unity.modules.imageconversion": "1.0.0"
      }
    },
    "com.unity.modules.unitywebrequestwww": {
      "version": "1.0.0",
      "depth": 0,
      "source": "builtin",
      "dependencies": {
        "com.unity.modules.unitywebrequest": "1.0.0",
        "com.unity.modules.unitywebrequestassetbundle": "1.0.0",
        "com.unity.modules.unitywebrequestaudio": "1.0.0",
        "com.unity.modules.audio": "1.0.0",
        "com.unity.modules.assetbundle": "1.0.0",
        "com.unity.modules.imageconversion": "1.0.0"
      }
    },
    "com.unity.modules.vehicles": {
      "version": "1.0.0",
      "depth": 0,
      "source": "builtin",
      "dependencies": {
        "com.unity.modules.physics": "1.0.0"
      }
    },
    "com.unity.modules.video": {
      "version": "1.0.0",
      "depth": 0,
      "source": "builtin",
      "dependencies": {
        "com.unity.modules.audio": "1.0.0",
        "com.unity.modules.ui": "1.0.0",
        "com.unity.modules.unitywebrequest": "1.0.0"
      }
    },
    "com.unity.modules.vr": {
      "version": "1.0.0",
      "depth": 0,
      "source": "builtin",
      "dependencies": {
        "com.unity.modules.jsonserialize": "1.0.0",
        "com.unity.modules.physics": "1.0.0",
        "com.unity.modules.xr": "1.0.0"
      }
    },
    "com.unity.modules.wind": {
      "version": "1.0.0",
      "depth": 0,
      "source": "builtin",
      "dependencies": {}
    },
    "com.unity.modules.xr": {
      "version": "1.0.0",
      "depth": 0,
      "source": "builtin",
      "dependencies": {
        "com.unity.modules.physics": "1.0.0",
        "com.unity.modules.jsonserialize": "1.0.0",
        "com.unity.modules.subsystems": "1.0.0"
      }
    }
  }
}
